%YAML 1.1
%TAG !u! tag:unity3d.com,2011:
--- !u!114 &11400000
MonoBehaviour:
  m_ObjectHideFlags: 0
  m_CorrespondingSourceObject: {fileID: 0}
  m_PrefabInstance: {fileID: 0}
  m_PrefabAsset: {fileID: 0}
  m_GameObject: {fileID: 0}
  m_Enabled: 1
  m_EditorHideFlags: 0
  m_Script: {fileID: 11500000, guid: 327d3392f3d337d429c2806d39dba5cc, type: 3}
  m_Name: PlayerJump
  m_EditorClassIdentifier: 
  IsShared: 0
  BlockedActions: {fileID: 0}
  JumpLength: 2
  JumpTime: 0.2
  JumpCurve:
    serializedVersion: 2
    m_Curve:
    - serializedVersion: 3
      time: 0
      value: 0
      inSlope: 1.3060845
      outSlope: 1.3060845
      tangentMode: 0
      weightedMode: 0
      inWeight: 0
      outWeight: 0.036863033
    - serializedVersion: 3
      time: 0.7498293
      value: 0.47812378
      inSlope: -0.07779657
      outSlope: -0.07779657
      tangentMode: 0
      weightedMode: 0
      inWeight: 0.18637465
      outWeight: 0.57218254
    - serializedVersion: 3
      time: 1
      value: -0.009433746
      inSlope: -6.2036986
      outSlope: -6.2036986
      tangentMode: 0
      weightedMode: 0
      inWeight: 0.012529476
      outWeight: 0
    m_PreInfinity: 2
    m_PostInfinity: 2
    m_RotationOrder: 4
  JumpKey: 32
